Data Collection and Analysis
…
The second dataset has each observation as a certain area for each quarter from the year 2018 to 2020. There are 40 observations showing 4 quarters for the year 2018 and 2019, and the first two quarters for the year 2020. The number of subscribers are shown for each area by the quarter of that year.

Data Analysis

Netflix <- shows %>%
  select(Title, Year, Age, IMDb, Rotten.Tomatoes, Netflix) %>%
  filter(Netflix == 1) %>%
  group_by(Title)
Netflix

## # A tibble: 1,931 x 6
## # Groups:   Title [1,925]
##    Title                       Year Age    IMDb Rotten.Tomatoes Netflix
##    <chr>                      <int> <chr> <dbl> <chr>             <int>
##  1 Breaking Bad                2008 18+     9.5 96%                   1
##  2 Stranger Things             2016 16+     8.8 93%                   1
##  3 Money Heist                 2017 18+     8.4 91%                   1
##  4 Sherlock                    2010 16+     9.1 78%                   1
##  5 Better Call Saul            2015 18+     8.7 97%                   1
##  6 The Office                  2005 16+     8.9 81%                   1
##  7 Black Mirror                2011 18+     8.8 83%                   1
##  8 Supernatural                2005 16+     8.4 93%                   1
##  9 Peaky Blinders              2013 18+     8.8 92%                   1
## 10 Avatar: The Last Airbender  2005 7+      9.2 100%                  1
## # ... with 1,921 more rows

Hulu <- shows %>%
  select(Title, Year, Age, IMDb, Rotten.Tomatoes, Hulu) %>%
  filter(Hulu == 1) %>%
  group_by(Title)
Hulu

## # A tibble: 1,754 x 6
## # Groups:   Title [1,739]
##    Title                             Year Age    IMDb Rotten.Tomatoes  Hulu
##    <chr>                            <int> <chr> <dbl> <chr>           <int>
##  1 Attack on Titan                   2013 16+     8.8 94%                 1
##  2 Fullmetal Alchemist: Brotherhood  2009 18+     9.1 100%                1
##  3 Community                         2009 7+      8.5 88%                 1
##  4 Parks and Recreation              2009 16+     8.6 93%                 1
##  5 Twin Peaks                        1990 18+     8.8 89%                 1
##  6 One-Punch Man                     2015 16+     8.8 100%                1
##  7 The Good Place                    2016 16+     8.2 97%                 1
##  8 Grey's Anatomy                    2005 16+     7.6 83%                 1
##  9 Arrested Development              2003 16+     8.7 75%                 1
## 10 How to Get Away with Murder       2014 16+     8.1 88%                 1
## # ... with 1,744 more rows

Prime_video <- shows %>%
  select(Title, Year, Age, IMDb, Rotten.Tomatoes, Prime.Video) %>%
  filter(Prime.Video == 1) %>%
  group_by(Title)
Prime_video

## # A tibble: 2,144 x 6
## # Groups:   Title [2,138]
##    Title                            Year Age    IMDb Rotten.Tomatoes Prime.Video
##    <chr>                           <int> <chr> <dbl> <chr>                 <int>
##  1 Parks and Recreation             2009 16+     8.6 "93%"                     1
##  2 Star Trek: The Next Generation   1987 7+      8.6 "89%"                     1
##  3 The Good Wife                    2009 16+     8.3 "94%"                     1
##  4 Schitt's Creek                   2015 16+     8.4 "50%"                     1
##  5 Burn Notice                      2007 7+      7.9 "88%"                     1
##  6 American Horror Story            2011 18+     8   ""                        1
##  7 Star Trek                        1966 7+      8.3 "80%"                     1
##  8 Mushi-Shi                        2005 16+     8.5 "100%"                    1
##  9 Star Trek: Deep Space Nine       1993 7+      7.9 "90%"                     1
## 10 Law & Order: Special Victims U~  1999 16+     8   ""                        1
## # ... with 2,134 more rows

Disney_plus <- shows %>%
  select(Title, Year, Age, IMDb, Rotten.Tomatoes, Disney.) %>%
  filter(Disney. == 1) %>%
  group_by(Title)
Disney_plus

## # A tibble: 180 x 6
## # Groups:   Title [179]
##    Title                           Year Age    IMDb Rotten.Tomatoes Disney.
##    <chr>                          <int> <chr> <dbl> <chr>             <int>
##  1 Lab Rats                        2012 7+      6.6 ""                    1
##  2 America's Funniest Home Videos  1989 7+      6.2 ""                    1
##  3 Brain Games                     2011 7+      8.3 ""                    1
##  4 Jessie                          2011 all     5.9 ""                    1
##  5 PJ Masks                        2015 all     5.6 ""                    1
##  6 Best Friends Whenever           2015 all     5.5 ""                    1
##  7 The Simpsons                    1989 7+      8.7 "85%"                 1
##  8 Gravity Falls                   2012 7+      8.9 "100%"                1
##  9 Marvel's Runaways               2017 16+     7   "87%"                 1
## 10 Star vs. the Forces of Evil     2015 7+      8   ""                    1
## # ... with 170 more rows
…
